STAR version=STAR_2.4.0j
STAR compilation time,server,dir=Wed Feb 4 18:15:30 EST 2015 modena.cshl.edu:/sonas-hs/gingeras/nlsas_norepl/user/dobin/STAR/Releases/STAR_2.4.0j/source
##### DEFAULT parameters:
versionSTAR                       20201
versionGenome                     20101   20200   
parametersFiles                   -   
sysShell                          -
runMode                           alignReads
runThreadN                        1
genomeDir                         ./GenomeDir/
genomeLoad                        NoSharedMemory
genomeFastaFiles                  -   
genomeSAindexNbases               14
genomeChrBinNbits                 18
genomeSAsparseD                   1
readFilesIn                       Read1   Read2   
readFilesCommand                  -   
readMatesLengthsIn                NotEqual
readMapNumber                     18446744073709551615
inputBAMfile                      -
bamRemoveDuplicatesType           -
bamRemoveDuplicatesMate2basesN    0
limitGenomeGenerateRAM            31000000000
limitIObufferSize                 150000000
limitOutSAMoneReadBytes           100000
limitOutSJcollapsed               1000000
limitOutSJoneRead                 1000
limitBAMsortRAM                   0
outTmpDir                         -
outStd                            Log
outReadsUnmapped                  None
outQSconversionAdd                0
outSAMtype                        SAM   
outSAMmode                        Full
outSAMstrandField                 None
outSAMattributes                  Standard   
outSAMunmapped                    None
outSAMorder                       Paired
outSAMprimaryFlag                 OneBestScore
outSAMreadID                      Standard
outSAMmapqUnique                  255
outSAMflagOR                      0
outSAMflagAND                     65535
outSAMattrRGline                  -   
outSAMheaderHD                    -   
outSAMheaderPG                    -   
outSAMheaderCommentFile           -
outBAMcompression                 1
outBAMsortingThreadN              0
outSJfilterReads                  All
outSJfilterCountUniqueMin         3   1   1   1   
outSJfilterCountTotalMin          3   1   1   1   
outSJfilterOverhangMin            30   12   12   12   
outSJfilterDistToOtherSJmin       10   0   5   10   
outSJfilterIntronMaxVsReadN       50000   100000   200000   
outWigType                        None   
outWigStrand                      Stranded   
outWigReferencesPrefix            -
outWigNorm                        RPM   
outFilterType                     Normal
outFilterMultimapNmax             10
outFilterMultimapScoreRange       1
outFilterScoreMin                 0
outFilterScoreMinOverLread        0.66
outFilterMatchNmin                0
outFilterMatchNminOverLread       0.66
outFilterMismatchNmax             10
outFilterMismatchNoverLmax        0.3
outFilterMismatchNoverReadLmax    1
outFilterIntronMotifs             None
clip5pNbases                      0   
clip3pNbases                      0   
clip3pAfterAdapterNbases          0   
clip3pAdapterSeq                  -   
clip3pAdapterMMp                  0.1   
winBinNbits                       16
winAnchorDistNbins                9
winFlankNbins                     4
winAnchorMultimapNmax             50
scoreGap                          0
scoreGapNoncan                    -8
scoreGapGCAG                      -4
scoreGapATAC                      -8
scoreStitchSJshift                1
scoreGenomicLengthLog2scale       -0.25
scoreDelBase                      -2
scoreDelOpen                      -2
scoreInsOpen                      -2
scoreInsBase                      -2
seedSearchLmax                    0
seedSearchStartLmax               50
seedSearchStartLmaxOverLread      1
seedPerReadNmax                   1000
seedPerWindowNmax                 50
seedNoneLociPerWindow             10
seedMultimapNmax                  10000
alignIntronMin                    21
alignIntronMax                    0
alignMatesGapMax                  0
alignTranscriptsPerReadNmax       10000
alignSJoverhangMin                5
alignSJDBoverhangMin              3
alignSplicedMateMapLmin           0
alignSplicedMateMapLminOverLmate    0.66
alignWindowsPerReadNmax           10000
alignTranscriptsPerWindowNmax     100
alignEndsType                     Local
alignSoftClipAtReferenceEnds      Yes
chimSegmentMin                    0
chimScoreMin                      0
chimScoreDropMax                  20
chimScoreSeparation               10
chimScoreJunctionNonGTAG          -1
chimJunctionOverhangMin           20
sjdbFileChrStartEnd               -   
sjdbGTFfile                       -
sjdbGTFchrPrefix                  -
sjdbGTFfeatureExon                exon
sjdbGTFtagExonParentTranscript    transcript_id
sjdbGTFtagExonParentGene          gene_id
sjdbOverhang                      0
sjdbScore                         2
quantMode                         -   
quantTranscriptomeBAMcompression    1
twopass1readsN                    0
twopassSJlimit                    1000000
##### Command Line:
/project/wang/pkuksa/bin/STAR_2.4.0j/bin/Linux_x86_64/STAR --genomeDir /project/wang/pkuksa/datasets/hg19/star/ --genomeLoad LoadAndKeep --readFilesIn example-data.fastq.gz --readFilesCommand zcat --runThreadN 4 --alignIntronMax 1 --outSAMattributes NH HI NM MD --outFilterMultimapNmax 100 --outReadsUnmapped Fastx --outFilterMismatchNmax 0 --outFilterMatchNmin 14 --outFileNamePrefix example_out/
##### Initial USER parameters from Command Line:
outFileNamePrefix                 example_out/
###### All USER parameters from Command Line:
genomeDir                     /project/wang/pkuksa/datasets/hg19/star/     ~RE-DEFINED
genomeLoad                    LoadAndKeep     ~RE-DEFINED
readFilesIn                   example-data.fastq.gz        ~RE-DEFINED
readFilesCommand              zcat        ~RE-DEFINED
runThreadN                    4     ~RE-DEFINED
alignIntronMax                1     ~RE-DEFINED
outSAMattributes              NH   HI   NM   MD        ~RE-DEFINED
outFilterMultimapNmax         100     ~RE-DEFINED
outReadsUnmapped              Fastx     ~RE-DEFINED
outFilterMismatchNmax         0     ~RE-DEFINED
outFilterMatchNmin            14     ~RE-DEFINED
outFileNamePrefix             example_out/     ~RE-DEFINED
##### Finished reading parameters from all sources

##### Final user re-defined parameters-----------------:
runThreadN                        4
genomeDir                         /project/wang/pkuksa/datasets/hg19/star/
genomeLoad                        LoadAndKeep
readFilesIn                       example-data.fastq.gz   
readFilesCommand                  zcat   
outFileNamePrefix                 example_out/
outReadsUnmapped                  Fastx
outSAMattributes                  NH   HI   NM   MD   
outFilterMultimapNmax             100
outFilterMatchNmin                14
outFilterMismatchNmax             0
alignIntronMax                    1

-------------------------------
##### Final effective command line:
/project/wang/pkuksa/bin/STAR_2.4.0j/bin/Linux_x86_64/STAR   --runThreadN 4   --genomeDir /project/wang/pkuksa/datasets/hg19/star/   --genomeLoad LoadAndKeep   --readFilesIn example-data.fastq.gz      --readFilesCommand zcat      --outFileNamePrefix example_out/   --outReadsUnmapped Fastx   --outSAMattributes NH   HI   NM   MD      --outFilterMultimapNmax 100   --outFilterMatchNmin 14   --outFilterMismatchNmax 0   --alignIntronMax 1

##### Final parameters after user input--------------------------------:
versionSTAR                       20201
versionGenome                     20101   20200   
parametersFiles                   -   
sysShell                          -
runMode                           alignReads
runThreadN                        4
genomeDir                         /project/wang/pkuksa/datasets/hg19/star/
genomeLoad                        LoadAndKeep
genomeFastaFiles                  -   
genomeSAindexNbases               14
genomeChrBinNbits                 18
genomeSAsparseD                   1
readFilesIn                       example-data.fastq.gz   
readFilesCommand                  zcat   
readMatesLengthsIn                NotEqual
readMapNumber                     18446744073709551615
inputBAMfile                      -
bamRemoveDuplicatesType           -
bamRemoveDuplicatesMate2basesN    0
limitGenomeGenerateRAM            31000000000
limitIObufferSize                 150000000
limitOutSAMoneReadBytes           100000
limitOutSJcollapsed               1000000
limitOutSJoneRead                 1000
limitBAMsortRAM                   0
outFileNamePrefix                 example_out/
outTmpDir                         -
outStd                            Log
outReadsUnmapped                  Fastx
outQSconversionAdd                0
outSAMtype                        SAM   
outSAMmode                        Full
outSAMstrandField                 None
outSAMattributes                  NH   HI   NM   MD   
outSAMunmapped                    None
outSAMorder                       Paired
outSAMprimaryFlag                 OneBestScore
outSAMreadID                      Standard
outSAMmapqUnique                  255
outSAMflagOR                      0
outSAMflagAND                     65535
outSAMattrRGline                  -   
outSAMheaderHD                    -   
outSAMheaderPG                    -   
outSAMheaderCommentFile           -
outBAMcompression                 1
outBAMsortingThreadN              0
outSJfilterReads                  All
outSJfilterCountUniqueMin         3   1   1   1   
outSJfilterCountTotalMin          3   1   1   1   
outSJfilterOverhangMin            30   12   12   12   
outSJfilterDistToOtherSJmin       10   0   5   10   
outSJfilterIntronMaxVsReadN       50000   100000   200000   
outWigType                        None   
outWigStrand                      Stranded   
outWigReferencesPrefix            -
outWigNorm                        RPM   
outFilterType                     Normal
outFilterMultimapNmax             100
outFilterMultimapScoreRange       1
outFilterScoreMin                 0
outFilterScoreMinOverLread        0.66
outFilterMatchNmin                14
outFilterMatchNminOverLread       0.66
outFilterMismatchNmax             0
outFilterMismatchNoverLmax        0.3
outFilterMismatchNoverReadLmax    1
outFilterIntronMotifs             None
clip5pNbases                      0   
clip3pNbases                      0   
clip3pAfterAdapterNbases          0   
clip3pAdapterSeq                  -   
clip3pAdapterMMp                  0.1   
winBinNbits                       16
winAnchorDistNbins                9
winFlankNbins                     4
winAnchorMultimapNmax             50
scoreGap                          0
scoreGapNoncan                    -8
scoreGapGCAG                      -4
scoreGapATAC                      -8
scoreStitchSJshift                1
scoreGenomicLengthLog2scale       -0.25
scoreDelBase                      -2
scoreDelOpen                      -2
scoreInsOpen                      -2
scoreInsBase                      -2
seedSearchLmax                    0
seedSearchStartLmax               50
seedSearchStartLmaxOverLread      1
seedPerReadNmax                   1000
seedPerWindowNmax                 50
seedNoneLociPerWindow             10
seedMultimapNmax                  10000
alignIntronMin                    21
alignIntronMax                    1
alignMatesGapMax                  0
alignTranscriptsPerReadNmax       10000
alignSJoverhangMin                5
alignSJDBoverhangMin              3
alignSplicedMateMapLmin           0
alignSplicedMateMapLminOverLmate    0.66
alignWindowsPerReadNmax           10000
alignTranscriptsPerWindowNmax     100
alignEndsType                     Local
alignSoftClipAtReferenceEnds      Yes
chimSegmentMin                    0
chimScoreMin                      0
chimScoreDropMax                  20
chimScoreSeparation               10
chimScoreJunctionNonGTAG          -1
chimJunctionOverhangMin           20
sjdbFileChrStartEnd               -   
sjdbGTFfile                       -
sjdbGTFchrPrefix                  -
sjdbGTFfeatureExon                exon
sjdbGTFtagExonParentTranscript    transcript_id
sjdbGTFtagExonParentGene          gene_id
sjdbOverhang                      0
sjdbScore                         2
quantMode                         -   
quantTranscriptomeBAMcompression    1
twopass1readsN                    0
twopassSJlimit                    1000000
----------------------------------------


   Input read files for mate 1, from input string example-data.fastq.gz
-rw-rw-r-- 1 pkuksa lswanglab 12191143 Jan  8  2016 example-data.fastq.gz

   readsCommandsFile:
exec > "example_out/_STARtmp/tmp.fifo.read1"
echo FILE 0
zcat      "example-data.fastq.gz"

Finished loading and checking parameters
Reading genome generation parameters:
versionGenome                 20201        ~RE-DEFINED
genomeFastaFiles              /home/pkuksa/datasets/hg19/hg19.fa        ~RE-DEFINED
genomeSAindexNbases           14     ~RE-DEFINED
genomeChrBinNbits             18     ~RE-DEFINED
genomeSAsparseD               1     ~RE-DEFINED
sjdbOverhang                  0     ~RE-DEFINED
sjdbFileChrStartEnd           -        ~RE-DEFINED
Genome version is compatible with current STAR version
Started loading the genome: Wed Mar 28 17:45:33 2018

Read from SAindex: genomeSAindexNbases=14  nSAi=357913940
Found genome in shared memory
Using shared memory for genome. key=0x171af21f;   shmid=0
nGenome=3151757312;  nSAbyte=23902811312
GstrandBit=32   SA number of indices=5794620924
Finished loading the genome: Wed Mar 28 17:45:33 2018

Number of real (reference) chromosmes= 93
1	chr1	249250621	0
2	chr2	243199373	249298944
3	chr3	198022430	492568576
4	chr4	191154276	690749440
5	chr5	180915260	882114560
6	chr6	171115067	1063256064
7	chr7	159138663	1234436096
8	chrX	155270560	1393819648
9	chr8	146364022	1549271040
10	chr9	141213431	1695809536
11	chr10	135534747	1837105152
12	chr11	135006516	1972895744
13	chr12	133851895	2108162048
14	chr13	115169878	2242117632
15	chr14	107349540	2357460992
16	chr15	102531392	2464940032
17	chr16	90354753	2567700480
18	chr17	81195210	2658140160
19	chr18	78077248	2739404800
20	chr20	63025520	2817523712
21	chrY	59373566	2880700416
22	chr19	59128983	2940207104
23	chr22	51304566	2999451648
24	chr21	48129895	3050831872
25	chr6_ssto_hap7	4928567	3099066368
26	chr6_mcf_hap5	4833398	3104047104
27	chr6_cox_hap2	4795371	3109027840
28	chr6_mann_hap4	4683263	3114008576
29	chr6_apd_hap1	4622290	3118727168
30	chr6_qbl_hap6	4611984	3123445760
31	chr6_dbb_hap3	4610396	3128164352
32	chr17_ctg5_hap1	1680828	3132882944
33	chr4_ctg9_hap1	590426	3134717952
34	chr1_gl000192_random	547496	3135504384
35	chrUn_gl000225	211173	3136290816
36	chr4_gl000194_random	191469	3136552960
37	chr4_gl000193_random	189789	3136815104
38	chr9_gl000200_random	187035	3137077248
39	chrUn_gl000222	186861	3137339392
40	chrUn_gl000212	186858	3137601536
41	chr7_gl000195_random	182896	3137863680
42	chrUn_gl000223	180455	3138125824
43	chrUn_gl000224	179693	3138387968
44	chrUn_gl000219	179198	3138650112
45	chr17_gl000205_random	174588	3138912256
46	chrUn_gl000215	172545	3139174400
47	chrUn_gl000216	172294	3139436544
48	chrUn_gl000217	172149	3139698688
49	chr9_gl000199_random	169874	3139960832
50	chrUn_gl000211	166566	3140222976
51	chrUn_gl000213	164239	3140485120
52	chrUn_gl000220	161802	3140747264
53	chrUn_gl000218	161147	3141009408
54	chr19_gl000209_random	159169	3141271552
55	chrUn_gl000221	155397	3141533696
56	chrUn_gl000214	137718	3141795840
57	chrUn_gl000228	129120	3142057984
58	chrUn_gl000227	128374	3142320128
59	chr1_gl000191_random	106433	3142582272
60	chr19_gl000208_random	92689	3142844416
61	chr9_gl000198_random	90085	3143106560
62	chr17_gl000204_random	81310	3143368704
63	chrUn_gl000233	45941	3143630848
64	chrUn_gl000237	45867	3143892992
65	chrUn_gl000230	43691	3144155136
66	chrUn_gl000242	43523	3144417280
67	chrUn_gl000243	43341	3144679424
68	chrUn_gl000241	42152	3144941568
69	chrUn_gl000236	41934	3145203712
70	chrUn_gl000240	41933	3145465856
71	chr17_gl000206_random	41001	3145728000
72	chrUn_gl000232	40652	3145990144
73	chrUn_gl000234	40531	3146252288
74	chr11_gl000202_random	40103	3146514432
75	chrUn_gl000238	39939	3146776576
76	chrUn_gl000244	39929	3147038720
77	chrUn_gl000248	39786	3147300864
78	chr8_gl000196_random	38914	3147563008
79	chrUn_gl000249	38502	3147825152
80	chrUn_gl000246	38154	3148087296
81	chr17_gl000203_random	37498	3148349440
82	chr8_gl000197_random	37175	3148611584
83	chrUn_gl000245	36651	3148873728
84	chrUn_gl000247	36422	3149135872
85	chr9_gl000201_random	36148	3149398016
86	chrUn_gl000235	34474	3149660160
87	chrUn_gl000239	33824	3149922304
88	chr21_gl000210_random	27682	3150184448
89	chrUn_gl000231	27386	3150446592
90	chrUn_gl000229	19913	3150708736
91	chrM	16571	3150970880
92	chrUn_gl000226	15008	3151233024
93	chr18_gl000207_random	4262	3151495168
To accomodate alignIntronMax=1 redefined winBinNbits=16
To accomodate alignIntronMax=1 and alignMatesGapMax=0, redefined winFlankNbins=1 and winAnchorDistNbins=2
Opening the file: example_out/_STARtmp//Unmapped.out.mate1.thread0 ... ok
Opening the file: example_out/_STARtmp//Unmapped.out.mate1.thread1 ... ok
Opening the file: example_out/_STARtmp//Unmapped.out.mate1.thread2 ... ok
Opening the file: example_out/_STARtmp//Unmapped.out.mate1.thread3 ... ok
Created thread # 1
Created thread # 2
Created thread # 3
Starting to map file # 0
mate 1:   example-data.fastq.gz
Thread #1 end of input stream, nextChar=-1
Completed: thread #3
Completed: thread #1
Completed: thread #0
Joined thread # 1
Completed: thread #2
Joined thread # 2
Joined thread # 3
--genomeLoad=LoadAndKeep .
ALL DONE!
